{
    "program_stage_variable_mass_unique": {
        "dg" : {
            "#sigma_{1}_limited": false,
            "#sigma_{1}_lower": null, 
            "#sigma_{1}_result": 0,
            "#sigma_{1}_upper": null,
            "#sigma_{2}_limited": false,
            "#sigma_{2}_lower": null,
            "#sigma_{2}_result": 0,
            "#sigma_{2}_upper": null,
            "c_{1}_limited": false,
            "c_{1}_lower": null,
            "c_{1}_result": 0,
            "c_{1}_upper": null,
            "c_{2}_limited": false,
            "c_{2}_lower":  null,
            "c_{2}_result": 0,
            "c_{2}_upper": null,
            "chi2": 0,
            "fit_before": false,
            "mean_limited": false,
            "mean_lower": null,
            "mean_result": 0,
            "mean_upper": null,
            "range_lower": null,
            "range_upper": null,
            "ranged": false
        },
        "sg" : {
            "#sigma_limited": false,
            "#sigma_lower": null,
            "#sigma_result": 0,
            "#sigma_upper": null,
            "c_limited": false,
            "c_lower": null,
            "c_result": 0,
            "c_upper": null,
            "chi2": 0,
            "fit_before": false,
            "mean_limited": false,
            "mean_lower": null,
            "mean_result": 0,
            "mean_upper": null,
            "range_lower": null,
            "range_upper": null,
            "ranged": false
        },
        "fit_types": [
            "dg",
            "sg"
        ]
    }
}
