lambda,Lambda,100,15,200,GeV^2,#lambda
Lambda,Lambda,100,15,200,GeV^2,#lambda
Phi,Phi,20,-3.141592,3.141592,rad,#phi
AbsCosTheta,AbsCosTheta,100,0,1,rad,abs(#cos#theta)
BDT,BDT,10,-1,1,score,BDT
DNN,DNN,10,0,1,score,DNN
DiMuonPt,DiMuonPt,25,5000,30000,MeV,P_{T j/#psi}
PhotonPt,PhotonPt,20,5000,25000,MeV,P_{T #gamma}
DPhi,DPhi,8,-3.141592,3.141592,rad,#Delta#phi
Q0,Lambda,100,15,200,GeV^2,#lambda
Q3,Lambda,100,25,50,GeV^2,#lambda
Q4,Lambda,100,50,100,GeV^2,#lambda
Q5,Lambda,100,100,200,GeV^2,#lambda
Q12,Lambda,100,25,200,GeV^2,#lambda
T0,Lambda,100,15,,GeV^2,#lambda
T3,Lambda,100,25,,GeV^2,#lambda
T4,Lambda,100,50,,GeV^2,#lambda
T5,Lambda,100,100,,GeV^2,#lambda
T12,Lambda,100,25,,GeV^2,#lambda
jmass0,DiMuonMass,100,2700,3500,GeV/c^{2},M_{J/#psi}
jmass1,DiMuonMass,100,2700,2900,GeV/c^{2},M_{J/#psi}
jmass2,DiMuonMass,100,2900,3100,GeV/c^{2},M_{J/#psi}
jmass3,DiMuonMass,100,3100,3300,GeV/c^{2},M_{J/#psi}
jmass4,DiMuonMass,100,3300,3500,GeV/c^{2},M_{J/#psi}
jtau0,DiMuonTau,100,-5.0,15.0,ps,#tau
jtau1,DiMuonTau,100,-5.0,0.86,ps,#tau
jtau2,DiMuonTau,100,0.86,15.0,ps,#tau
sub_mass,DiMuonMass,4,2700,3500,GeV/c^{2},M_{J/#psi}
sub_tau,DiMuonTau,2,-5.0,15.0,ps,#tau_{J/#psi}
DeltaZ0,DeltaZ0,120,-5,5,#mu m,#Delta z
qTA,qtA,15,-10,20,GeV,q_{T}^{A}
qtA,qtA,15,-10,20,GeV,q_{T}^{A}
qtM,qtM,50,-25,25,GeV,q_{T}^{M}
qtL,qtL,50,-25,25,GeV,q_{T}^{L}
qTB,abs(qtB),15,0,15,GeV,q_{T}^{B}
qtB,abs(qtB),15,0,15,GeV,q_{T}^{B}
qT2,qT^{2},100,0,400,GeV^2,q_{T}^{2}
jpsi_mass,DiLept_M,1000,2.7,3.5,GeV,M_{J/#psi}
jpsi_mass_branch,DiMuonMass,100,2700,3500,MeV,M_{J/#psi}
dimuon_tau,DiMuonTau,100,-5.0,15.0,ps,#tau
DiMuonTau,DiMuonTau,100,-5.0,15.0,ps,#tau
costheta,costheta,100,-1.0,1.0,rad,#cos#(#theta#)
phi_cs,PhiCS,100,-3.1416,3.1416,rad,#phi_{cs}
abs_phi_cs,PhiCS,100,0.0,3.141593,rad,#abs(phi_{cs})
photon_pt,PhotonPt,100,5.0,30,GeV,#P_{T#gamma}
jpsi_pt,DiMuonPt,100,5.0,30,GeV,#P_{T,J/\psi}
muon_pt,MuonPt,100,4.0,,GeV,#P_(T,#mu)
delta_phi,DPhi,100,0,3.1416,rad,#Delta#phi
delta_z,DiMuDZ,100,0,,#Delta Z,#Delta Z
act_ipx,ActIpX,100,0,100,IpX_{actual},no.
ActIpX,ActIpX,100,0,100,IpX_{actual},no.
avg_ipx,AvgIpX,100,0,100,IpX_{average},no.
AvgIpX,AvgIpX,100,0,100,IpX_{average},no.
tr_qta,tr_qta,60,-10,20,GeV,q_{T}^{A}
tr_qtb,abs(tr_qtb),60,0,15,GeV,q_{T}^{B}
tr_lambda,tr_lambda,20,0,200,GeV^{2},#lambda
re_qta,re_qta,60,-10,20,GeV,q_{T}^{A}
re_qtb,abs(re_qtb),60,0,15,GeV,q_{T}^{B}
re_lambda,re_lambda,20,0,200,GeV^{2},#lambda
mig_Q0,Lambda,100,15,200,GeV^2,#lambda
mig_Q3,Lambda,100,25,50,GeV^2,#lambda
mig_Q4,Lambda,100,50,100,GeV^2,#lambda
mig_Q5,Lambda,100,100,200,GeV^2,#lambda
mig_Q12,Lambda,100,25,200,GeV^2,#lambda
mig_T0,Lambda,100,15,,GeV^2,#lambda
mig_T3,Lambda,100,25,,GeV^2,#lambda
mig_T4,Lambda,100,50,,GeV^2,#lambda
mig_T5,Lambda,100,100,,GeV^2,#lambda
mig_T12,Lambda,100,25,,GeV^2,#lambda
truth_pass,truth_pass,2,-0.5,1.5,pass,count
reco_pass,reco_pass,2,-0.5,1.5,pass,count
delta10,,100,-10,10,,#Delta
delta100,,100,-100,100,,#Delta
delta1000,,100,-1000,1000,,#Delta
AbsdPhi,AbsdPhi,50,0,3.14159,rad,abs(#Delta#phi)
AbsPhi,AbsPhi,50,0,3.14159,rad,abs(#Delta#phi)
DY,DY,50,-5,5,units,#Delta#eta
qTSquared,qTSquared,50,0,400,GeV^{2},q_{T}^{2}
DiMuonMass,DiMuonMass,100,2700,3500,MeV,M_{J/#psi}
AbsdY,AbsdY,50,-5,5,units,abs(#Delta#eta)
Trigger_HLT_2mu4_bJpsimumu_noL2,Trigger_HLT_2mu4_bJpsimumu_noL2,2,0,2,result,count
Phot_Eta,Phot_Eta,50,-2.5,2.5,units,#eta_{#gamma}
JPsi_Eta,JPsi_Eta,50,-2.5,2.5,units,#eta_{#gamma}
qxpsi,qxpsi,50,-10,20,units,q_{x}^{#psi}
qypsi,qypsi,50,-20,20,units,q_{y}^{#psi}
qxgamma,qxgamma,50,-20,20,units,q_{x}^{#gamma}
qygamma,qygamma,50,-20,20,units,q_{y}^{#gamma}
qxsum,qxsum,50,0,40,units,q_{x}^{#sum}
qysum,qysum,50,-40,40,units,q_{y}^{#sum}
sub_mid,sub_mid,1,0.717,0.717,ps,#tau



